
Wait 10 seconds...
1 Reader Thread(s)
Reader #0000: 22100

100 Writer Thread(s)
Writer #0000: 22100
Writer #0001: 22100
Writer #0002: 22100
Writer #0003: 22100
Writer #0004: 22100
Writer #0005: 22100
Writer #0006: 22100
Writer #0007: 22100
Writer #0008: 22100
Writer #0009: 22100
Writer #0010: 22100
Writer #0011: 22100
Writer #0012: 22100
Writer #0013: 22100
Writer #0014: 22101
Writer #0015: 22101
Writer #0016: 22100
Writer #0017: 22100
Writer #0018: 22100
Writer #0019: 22100
Writer #0020: 22100
Writer #0021: 22101
Writer #0022: 22100
Writer #0023: 22100
Writer #0024: 22100
Writer #0025: 22100
Writer #0026: 22100
Writer #0027: 22100
Writer #0028: 22100
Writer #0029: 22101
Writer #0030: 22100
Writer #0031: 22100
Writer #0032: 22100
Writer #0033: 22100
Writer #0034: 22100
Writer #0035: 22100
Writer #0036: 22101
Writer #0037: 22101
Writer #0038: 22100
Writer #0039: 22101
Writer #0040: 22100
Writer #0041: 22100
Writer #0042: 22100
Writer #0043: 22100
Writer #0044: 22101
Writer #0045: 22100
Writer #0046: 22100
Writer #0047: 22100
Writer #0048: 22100
Writer #0049: 22100
Writer #0050: 22100
Writer #0051: 22100
Writer #0052: 22101
Writer #0053: 22100
Writer #0054: 22100
Writer #0055: 22100
Writer #0056: 22100
Writer #0057: 22100
Writer #0058: 22101
Writer #0059: 22100
Writer #0060: 22101
Writer #0061: 22101
Writer #0062: 22100
Writer #0063: 22100
Writer #0064: 22101
Writer #0065: 22100
Writer #0066: 22100
Writer #0067: 22100
Writer #0068: 22100
Writer #0069: 22100
Writer #0070: 22101
Writer #0071: 22100
Writer #0072: 22101
Writer #0073: 22101
Writer #0074: 22100
Writer #0075: 22101
Writer #0076: 22100
Writer #0077: 22100
Writer #0078: 22100
Writer #0079: 22100
Writer #0080: 22100
Writer #0081: 22100
Writer #0082: 22100
Writer #0083: 22100
Writer #0084: 22100
Writer #0085: 22100
Writer #0086: 22100
Writer #0087: 22100
Writer #0088: 22100
Writer #0089: 22100
Writer #0090: 22100
Writer #0091: 22100
Writer #0092: 22101
Writer #0093: 22100
Writer #0094: 22100
Writer #0095: 22100
Writer #0096: 22100
Writer #0097: 22100
Writer #0098: 22101
Writer #0099: 22100

Reader Total: 22100
Writer Total: 2210019
Wait 10 seconds...
1 Reader Thread(s)
Reader #0000: 23037

100 Writer Thread(s)
Writer #0000: 23038
Writer #0001: 23038
Writer #0002: 23037
Writer #0003: 23037
Writer #0004: 23038
Writer #0005: 23038
Writer #0006: 23038
Writer #0007: 23038
Writer #0008: 23038
Writer #0009: 23037
Writer #0010: 23038
Writer #0011: 23037
Writer #0012: 23037
Writer #0013: 23038
Writer #0014: 23038
Writer #0015: 23037
Writer #0016: 23038
Writer #0017: 23037
Writer #0018: 23038
Writer #0019: 23037
Writer #0020: 23038
Writer #0021: 23038
Writer #0022: 23037
Writer #0023: 23038
Writer #0024: 23038
Writer #0025: 23038
Writer #0026: 23037
Writer #0027: 23037
Writer #0028: 23038
Writer #0029: 23038
Writer #0030: 23037
Writer #0031: 23038
Writer #0032: 23038
Writer #0033: 23037
Writer #0034: 23038
Writer #0035: 23038
Writer #0036: 23037
Writer #0037: 23037
Writer #0038: 23037
Writer #0039: 23037
Writer #0040: 23038
Writer #0041: 23038
Writer #0042: 23038
Writer #0043: 23038
Writer #0044: 23037
Writer #0045: 23038
Writer #0046: 23037
Writer #0047: 23037
Writer #0048: 23038
Writer #0049: 23038
Writer #0050: 23038
Writer #0051: 23038
Writer #0052: 23038
Writer #0053: 23038
Writer #0054: 23037
Writer #0055: 23037
Writer #0056: 23038
Writer #0057: 23038
Writer #0058: 23038
Writer #0059: 23037
Writer #0060: 23037
Writer #0061: 23038
Writer #0062: 23037
Writer #0063: 23037
Writer #0064: 23038
Writer #0065: 23038
Writer #0066: 23037
Writer #0067: 23038
Writer #0068: 23038
Writer #0069: 23038
Writer #0070: 23037
Writer #0071: 23037
Writer #0072: 23038
Writer #0073: 23038
Writer #0074: 23038
Writer #0075: 23038
Writer #0076: 23037
Writer #0077: 23038
Writer #0078: 23038
Writer #0079: 23037
Writer #0080: 23037
Writer #0081: 23037
Writer #0082: 23037
Writer #0083: 23037
Writer #0084: 23037
Writer #0085: 23038
Writer #0086: 23037
Writer #0087: 23037
Writer #0088: 23038
Writer #0089: 23037
Writer #0090: 23038
Writer #0091: 23038
Writer #0092: 23038
Writer #0093: 23037
Writer #0094: 23038
Writer #0095: 23037
Writer #0096: 23038
Writer #0097: 23037
Writer #0098: 23037
Writer #0099: 23037

Reader Total: 23037
Writer Total: 2303756
Wait 10 seconds...
1 Reader Thread(s)
Reader #0000: 23060

100 Writer Thread(s)
Writer #0000: 23059
Writer #0001: 23059
Writer #0002: 23059
Writer #0003: 23059
Writer #0004: 23059
Writer #0005: 23060
Writer #0006: 23059
Writer #0007: 23060
Writer #0008: 23060
Writer #0009: 23060
Writer #0010: 23060
Writer #0011: 23060
Writer #0012: 23059
Writer #0013: 23059
Writer #0014: 23060
Writer #0015: 23060
Writer #0016: 23060
Writer #0017: 23059
Writer #0018: 23060
Writer #0019: 23060
Writer #0020: 23059
Writer #0021: 23059
Writer #0022: 23059
Writer #0023: 23060
Writer #0024: 23059
Writer #0025: 23060
Writer #0026: 23060
Writer #0027: 23060
Writer #0028: 23059
Writer #0029: 23059
Writer #0030: 23059
Writer #0031: 23060
Writer #0032: 23060
Writer #0033: 23060
Writer #0034: 23060
Writer #0035: 23060
Writer #0036: 23060
Writer #0037: 23060
Writer #0038: 23060
Writer #0039: 23060
Writer #0040: 23059
Writer #0041: 23059
Writer #0042: 23060
Writer #0043: 23060
Writer #0044: 23060
Writer #0045: 23059
Writer #0046: 23060
Writer #0047: 23060
Writer #0048: 23060
Writer #0049: 23060
Writer #0050: 23060
Writer #0051: 23060
Writer #0052: 23059
Writer #0053: 23060
Writer #0054: 23060
Writer #0055: 23060
Writer #0056: 23060
Writer #0057: 23059
Writer #0058: 23059
Writer #0059: 23060
Writer #0060: 23059
Writer #0061: 23060
Writer #0062: 23060
Writer #0063: 23059
Writer #0064: 23060
Writer #0065: 23059
Writer #0066: 23060
Writer #0067: 23060
Writer #0068: 23060
Writer #0069: 23059
Writer #0070: 23060
Writer #0071: 23060
Writer #0072: 23060
Writer #0073: 23059
Writer #0074: 23059
Writer #0075: 23060
Writer #0076: 23060
Writer #0077: 23060
Writer #0078: 23059
Writer #0079: 23060
Writer #0080: 23060
Writer #0081: 23059
Writer #0082: 23059
Writer #0083: 23060
Writer #0084: 23060
Writer #0085: 23060
Writer #0086: 23060
Writer #0087: 23060
Writer #0088: 23060
Writer #0089: 23060
Writer #0090: 23060
Writer #0091: 23060
Writer #0092: 23060
Writer #0093: 23059
Writer #0094: 23059
Writer #0095: 23060
Writer #0096: 23060
Writer #0097: 23060
Writer #0098: 23059
Writer #0099: 23060

Reader Total: 23060
Writer Total: 2305966
Wait 10 seconds...
1 Reader Thread(s)
Reader #0000: 23141

100 Writer Thread(s)
Writer #0000: 23141
Writer #0001: 23142
Writer #0002: 23141
Writer #0003: 23141
Writer #0004: 23141
Writer #0005: 23142
Writer #0006: 23141
Writer #0007: 23141
Writer #0008: 23142
Writer #0009: 23141
Writer #0010: 23141
Writer #0011: 23141
Writer #0012: 23142
Writer #0013: 23142
Writer #0014: 23141
Writer #0015: 23142
Writer #0016: 23141
Writer #0017: 23141
Writer #0018: 23141
Writer #0019: 23141
Writer #0020: 23141
Writer #0021: 23142
Writer #0022: 23141
Writer #0023: 23141
Writer #0024: 23141
Writer #0025: 23141
Writer #0026: 23141
Writer #0027: 23141
Writer #0028: 23141
Writer #0029: 23142
Writer #0030: 23141
Writer #0031: 23141
Writer #0032: 23141
Writer #0033: 23141
Writer #0034: 23141
Writer #0035: 23141
Writer #0036: 23141
Writer #0037: 23141
Writer #0038: 23141
Writer #0039: 23141
Writer #0040: 23141
Writer #0041: 23142
Writer #0042: 23141
Writer #0043: 23141
Writer #0044: 23141
Writer #0045: 23141
Writer #0046: 23141
Writer #0047: 23141
Writer #0048: 23141
Writer #0049: 23142
Writer #0050: 23142
Writer #0051: 23141
Writer #0052: 23141
Writer #0053: 23141
Writer #0054: 23141
Writer #0055: 23142
Writer #0056: 23141
Writer #0057: 23141
Writer #0058: 23141
Writer #0059: 23141
Writer #0060: 23141
Writer #0061: 23141
Writer #0062: 23141
Writer #0063: 23141
Writer #0064: 23141
Writer #0065: 23141
Writer #0066: 23141
Writer #0067: 23141
Writer #0068: 23141
Writer #0069: 23141
Writer #0070: 23142
Writer #0071: 23141
Writer #0072: 23141
Writer #0073: 23142
Writer #0074: 23142
Writer #0075: 23141
Writer #0076: 23141
Writer #0077: 23141
Writer #0078: 23141
Writer #0079: 23141
Writer #0080: 23142
Writer #0081: 23141
Writer #0082: 23141
Writer #0083: 23141
Writer #0084: 23141
Writer #0085: 23141
Writer #0086: 23142
Writer #0087: 23141
Writer #0088: 23142
Writer #0089: 23141
Writer #0090: 23141
Writer #0091: 23141
Writer #0092: 23141
Writer #0093: 23141
Writer #0094: 23141
Writer #0095: 23142
Writer #0096: 23141
Writer #0097: 23141
Writer #0098: 23141
Writer #0099: 23142

Reader Total: 23141
Writer Total: 2314120
Wait 10 seconds...
1 Reader Thread(s)
Reader #0000: 21218

100 Writer Thread(s)
Writer #0000: 21218
Writer #0001: 21218
Writer #0002: 21218
Writer #0003: 21219
Writer #0004: 21218
Writer #0005: 21219
Writer #0006: 21218
Writer #0007: 21218
Writer #0008: 21219
Writer #0009: 21218
Writer #0010: 21219
Writer #0011: 21218
Writer #0012: 21218
Writer #0013: 21219
Writer #0014: 21218
Writer #0015: 21219
Writer #0016: 21218
Writer #0017: 21218
Writer #0018: 21219
Writer #0019: 21219
Writer #0020: 21219
Writer #0021: 21218
Writer #0022: 21219
Writer #0023: 21219
Writer #0024: 21218
Writer #0025: 21218
Writer #0026: 21219
Writer #0027: 21218
Writer #0028: 21219
Writer #0029: 21218
Writer #0030: 21219
Writer #0031: 21219
Writer #0032: 21218
Writer #0033: 21219
Writer #0034: 21219
Writer #0035: 21218
Writer #0036: 21218
Writer #0037: 21219
Writer #0038: 21219
Writer #0039: 21219
Writer #0040: 21218
Writer #0041: 21219
Writer #0042: 21218
Writer #0043: 21219
Writer #0044: 21218
Writer #0045: 21218
Writer #0046: 21219
Writer #0047: 21219
Writer #0048: 21219
Writer #0049: 21219
Writer #0050: 21219
Writer #0051: 21219
Writer #0052: 21219
Writer #0053: 21219
Writer #0054: 21219
Writer #0055: 21219
Writer #0056: 21219
Writer #0057: 21218
Writer #0058: 21219
Writer #0059: 21218
Writer #0060: 21219
Writer #0061: 21219
Writer #0062: 21219
Writer #0063: 21219
Writer #0064: 21218
Writer #0065: 21219
Writer #0066: 21219
Writer #0067: 21219
Writer #0068: 21219
Writer #0069: 21219
Writer #0070: 21219
Writer #0071: 21218
Writer #0072: 21219
Writer #0073: 21219
Writer #0074: 21219
Writer #0075: 21219
Writer #0076: 21219
Writer #0077: 21218
Writer #0078: 21219
Writer #0079: 21218
Writer #0080: 21219
Writer #0081: 21219
Writer #0082: 21219
Writer #0083: 21218
Writer #0084: 21219
Writer #0085: 21219
Writer #0086: 21218
Writer #0087: 21219
Writer #0088: 21219
Writer #0089: 21218
Writer #0090: 21218
Writer #0091: 21219
Writer #0092: 21219
Writer #0093: 21219
Writer #0094: 21218
Writer #0095: 21219
Writer #0096: 21219
Writer #0097: 21219
Writer #0098: 21219
Writer #0099: 21218

Reader Total: 21218
Writer Total: 2121864
Wait 10 seconds...
1 Reader Thread(s)
Reader #0000: 22804

100 Writer Thread(s)
Writer #0000: 22804
Writer #0001: 22804
Writer #0002: 22804
Writer #0003: 22804
Writer #0004: 22804
Writer #0005: 22805
Writer #0006: 22804
Writer #0007: 22805
Writer #0008: 22804
Writer #0009: 22804
Writer #0010: 22805
Writer #0011: 22805
Writer #0012: 22804
Writer #0013: 22804
Writer #0014: 22804
Writer #0015: 22804
Writer #0016: 22805
Writer #0017: 22804
Writer #0018: 22804
Writer #0019: 22804
Writer #0020: 22804
Writer #0021: 22804
Writer #0022: 22804
Writer #0023: 22805
Writer #0024: 22805
Writer #0025: 22805
Writer #0026: 22805
Writer #0027: 22804
Writer #0028: 22804
Writer #0029: 22805
Writer #0030: 22805
Writer #0031: 22804
Writer #0032: 22804
Writer #0033: 22804
Writer #0034: 22804
Writer #0035: 22804
Writer #0036: 22805
Writer #0037: 22804
Writer #0038: 22805
Writer #0039: 22804
Writer #0040: 22804
Writer #0041: 22804
Writer #0042: 22805
Writer #0043: 22805
Writer #0044: 22805
Writer #0045: 22804
Writer #0046: 22805
Writer #0047: 22804
Writer #0048: 22804
Writer #0049: 22804
Writer #0050: 22804
Writer #0051: 22805
Writer #0052: 22804
Writer #0053: 22805
Writer #0054: 22805
Writer #0055: 22804
Writer #0056: 22804
Writer #0057: 22804
Writer #0058: 22804
Writer #0059: 22804
Writer #0060: 22805
Writer #0061: 22804
Writer #0062: 22805
Writer #0063: 22804
Writer #0064: 22804
Writer #0065: 22804
Writer #0066: 22805
Writer #0067: 22805
Writer #0068: 22804
Writer #0069: 22805
Writer #0070: 22805
Writer #0071: 22804
Writer #0072: 22804
Writer #0073: 22804
Writer #0074: 22804
Writer #0075: 22804
Writer #0076: 22804
Writer #0077: 22805
Writer #0078: 22804
Writer #0079: 22805
Writer #0080: 22804
Writer #0081: 22804
Writer #0082: 22805
Writer #0083: 22805
Writer #0084: 22804
Writer #0085: 22804
Writer #0086: 22804
Writer #0087: 22805
Writer #0088: 22805
Writer #0089: 22805
Writer #0090: 22805
Writer #0091: 22804
Writer #0092: 22804
Writer #0093: 22805
Writer #0094: 22805
Writer #0095: 22805
Writer #0096: 22804
Writer #0097: 22804
Writer #0098: 22805
Writer #0099: 22804

Reader Total: 22804
Writer Total: 2280438
Wait 10 seconds...
1 Reader Thread(s)
Reader #0000: 21371

100 Writer Thread(s)
Writer #0000: 21371
Writer #0001: 21371
Writer #0002: 21371
Writer #0003: 21371
Writer #0004: 21371
Writer #0005: 21372
Writer #0006: 21371
Writer #0007: 21371
Writer #0008: 21371
Writer #0009: 21371
Writer #0010: 21371
Writer #0011: 21371
Writer #0012: 21371
Writer #0013: 21371
Writer #0014: 21371
Writer #0015: 21371
Writer #0016: 21371
Writer #0017: 21371
Writer #0018: 21371
Writer #0019: 21371
Writer #0020: 21371
Writer #0021: 21371
Writer #0022: 21371
Writer #0023: 21371
Writer #0024: 21371
Writer #0025: 21371
Writer #0026: 21371
Writer #0027: 21371
Writer #0028: 21371
Writer #0029: 21372
Writer #0030: 21371
Writer #0031: 21371
Writer #0032: 21371
Writer #0033: 21371
Writer #0034: 21371
Writer #0035: 21371
Writer #0036: 21371
Writer #0037: 21371
Writer #0038: 21371
Writer #0039: 21371
Writer #0040: 21371
Writer #0041: 21371
Writer #0042: 21371
Writer #0043: 21372
Writer #0044: 21371
Writer #0045: 21371
Writer #0046: 21371
Writer #0047: 21372
Writer #0048: 21372
Writer #0049: 21371
Writer #0050: 21371
Writer #0051: 21372
Writer #0052: 21371
Writer #0053: 21371
Writer #0054: 21371
Writer #0055: 21371
Writer #0056: 21371
Writer #0057: 21371
Writer #0058: 21371
Writer #0059: 21371
Writer #0060: 21371
Writer #0061: 21371
Writer #0062: 21371
Writer #0063: 21371
Writer #0064: 21371
Writer #0065: 21371
Writer #0066: 21371
Writer #0067: 21371
Writer #0068: 21371
Writer #0069: 21371
Writer #0070: 21371
Writer #0071: 21371
Writer #0072: 21371
Writer #0073: 21371
Writer #0074: 21372
Writer #0075: 21371
Writer #0076: 21372
Writer #0077: 21371
Writer #0078: 21371
Writer #0079: 21371
Writer #0080: 21371
Writer #0081: 21371
Writer #0082: 21372
Writer #0083: 21371
Writer #0084: 21371
Writer #0085: 21371
Writer #0086: 21371
Writer #0087: 21371
Writer #0088: 21371
Writer #0089: 21371
Writer #0090: 21371
Writer #0091: 21371
Writer #0092: 21371
Writer #0093: 21371
Writer #0094: 21371
Writer #0095: 21371
Writer #0096: 21371
Writer #0097: 21371
Writer #0098: 21371
Writer #0099: 21371

Reader Total: 21371
Writer Total: 2137109
Wait 10 seconds...
1 Reader Thread(s)
Reader #0000: 22495

100 Writer Thread(s)
Writer #0000: 22495
Writer #0001: 22495
Writer #0002: 22495
Writer #0003: 22496
Writer #0004: 22495
Writer #0005: 22496
Writer #0006: 22495
Writer #0007: 22495
Writer #0008: 22495
Writer #0009: 22495
Writer #0010: 22495
Writer #0011: 22495
Writer #0012: 22495
Writer #0013: 22496
Writer #0014: 22495
Writer #0015: 22495
Writer #0016: 22495
Writer #0017: 22495
Writer #0018: 22495
Writer #0019: 22495
Writer #0020: 22495
Writer #0021: 22496
Writer #0022: 22496
Writer #0023: 22496
Writer #0024: 22495
Writer #0025: 22495
Writer #0026: 22496
Writer #0027: 22496
Writer #0028: 22496
Writer #0029: 22496
Writer #0030: 22495
Writer #0031: 22495
Writer #0032: 22495
Writer #0033: 22496
Writer #0034: 22496
Writer #0035: 22495
Writer #0036: 22496
Writer #0037: 22496
Writer #0038: 22495
Writer #0039: 22495
Writer #0040: 22496
Writer #0041: 22496
Writer #0042: 22495
Writer #0043: 22496
Writer #0044: 22495
Writer #0045: 22495
Writer #0046: 22495
Writer #0047: 22496
Writer #0048: 22496
Writer #0049: 22496
Writer #0050: 22496
Writer #0051: 22496
Writer #0052: 22496
Writer #0053: 22495
Writer #0054: 22496
Writer #0055: 22496
Writer #0056: 22496
Writer #0057: 22495
Writer #0058: 22496
Writer #0059: 22496
Writer #0060: 22496
Writer #0061: 22495
Writer #0062: 22495
Writer #0063: 22495
Writer #0064: 22496
Writer #0065: 22495
Writer #0066: 22496
Writer #0067: 22496
Writer #0068: 22496
Writer #0069: 22495
Writer #0070: 22495
Writer #0071: 22495
Writer #0072: 22495
Writer #0073: 22495
Writer #0074: 22496
Writer #0075: 22496
Writer #0076: 22496
Writer #0077: 22495
Writer #0078: 22496
Writer #0079: 22495
Writer #0080: 22496
Writer #0081: 22495
Writer #0082: 22496
Writer #0083: 22496
Writer #0084: 22495
Writer #0085: 22496
Writer #0086: 22495
Writer #0087: 22496
Writer #0088: 22495
Writer #0089: 22495
Writer #0090: 22496
Writer #0091: 22496
Writer #0092: 22496
Writer #0093: 22496
Writer #0094: 22495
Writer #0095: 22496
Writer #0096: 22495
Writer #0097: 22495
Writer #0098: 22495
Writer #0099: 22496

Reader Total: 22495
Writer Total: 2249548
Wait 10 seconds...
1 Reader Thread(s)
Reader #0000: 22903

100 Writer Thread(s)
Writer #0000: 22903
Writer #0001: 22903
Writer #0002: 22903
Writer #0003: 22904
Writer #0004: 22903
Writer #0005: 22903
Writer #0006: 22903
Writer #0007: 22903
Writer #0008: 22903
Writer #0009: 22904
Writer #0010: 22903
Writer #0011: 22903
Writer #0012: 22904
Writer #0013: 22904
Writer #0014: 22903
Writer #0015: 22904
Writer #0016: 22903
Writer #0017: 22903
Writer #0018: 22903
Writer #0019: 22903
Writer #0020: 22903
Writer #0021: 22904
Writer #0022: 22904
Writer #0023: 22904
Writer #0024: 22903
Writer #0025: 22903
Writer #0026: 22903
Writer #0027: 22904
Writer #0028: 22903
Writer #0029: 22903
Writer #0030: 22903
Writer #0031: 22903
Writer #0032: 22904
Writer #0033: 22904
Writer #0034: 22903
Writer #0035: 22903
Writer #0036: 22903
Writer #0037: 22904
Writer #0038: 22903
Writer #0039: 22903
Writer #0040: 22903
Writer #0041: 22903
Writer #0042: 22903
Writer #0043: 22903
Writer #0044: 22904
Writer #0045: 22903
Writer #0046: 22904
Writer #0047: 22904
Writer #0048: 22903
Writer #0049: 22904
Writer #0050: 22903
Writer #0051: 22903
Writer #0052: 22903
Writer #0053: 22903
Writer #0054: 22904
Writer #0055: 22904
Writer #0056: 22903
Writer #0057: 22903
Writer #0058: 22903
Writer #0059: 22903
Writer #0060: 22904
Writer #0061: 22903
Writer #0062: 22903
Writer #0063: 22903
Writer #0064: 22903
Writer #0065: 22903
Writer #0066: 22903
Writer #0067: 22903
Writer #0068: 22903
Writer #0069: 22903
Writer #0070: 22903
Writer #0071: 22903
Writer #0072: 22903
Writer #0073: 22903
Writer #0074: 22903
Writer #0075: 22903
Writer #0076: 22903
Writer #0077: 22903
Writer #0078: 22903
Writer #0079: 22903
Writer #0080: 22903
Writer #0081: 22904
Writer #0082: 22903
Writer #0083: 22903
Writer #0084: 22903
Writer #0085: 22904
Writer #0086: 22903
Writer #0087: 22903
Writer #0088: 22903
Writer #0089: 22904
Writer #0090: 22904
Writer #0091: 22903
Writer #0092: 22903
Writer #0093: 22903
Writer #0094: 22903
Writer #0095: 22904
Writer #0096: 22903
Writer #0097: 22904
Writer #0098: 22904
Writer #0099: 22903

Reader Total: 22903
Writer Total: 2290326
Wait 10 seconds...
1 Reader Thread(s)
Reader #0000: 23675

100 Writer Thread(s)
Writer #0000: 23675
Writer #0001: 23675
Writer #0002: 23675
Writer #0003: 23675
Writer #0004: 23675
Writer #0005: 23675
Writer #0006: 23676
Writer #0007: 23675
Writer #0008: 23675
Writer #0009: 23675
Writer #0010: 23675
Writer #0011: 23675
Writer #0012: 23675
Writer #0013: 23675
Writer #0014: 23675
Writer #0015: 23675
Writer #0016: 23675
Writer #0017: 23675
Writer #0018: 23675
Writer #0019: 23675
Writer #0020: 23675
Writer #0021: 23675
Writer #0022: 23675
Writer #0023: 23675
Writer #0024: 23675
Writer #0025: 23675
Writer #0026: 23674
Writer #0027: 23675
Writer #0028: 23675
Writer #0029: 23675
Writer #0030: 23675
Writer #0031: 23675
Writer #0032: 23675
Writer #0033: 23675
Writer #0034: 23675
Writer #0035: 23675
Writer #0036: 23674
Writer #0037: 23675
Writer #0038: 23675
Writer #0039: 23675
Writer #0040: 23675
Writer #0041: 23675
Writer #0042: 23675
Writer #0043: 23675
Writer #0044: 23675
Writer #0045: 23675
Writer #0046: 23675
Writer #0047: 23675
Writer #0048: 23675
Writer #0049: 23675
Writer #0050: 23675
Writer #0051: 23675
Writer #0052: 23675
Writer #0053: 23675
Writer #0054: 23675
Writer #0055: 23675
Writer #0056: 23675
Writer #0057: 23674
Writer #0058: 23675
Writer #0059: 23675
Writer #0060: 23675
Writer #0061: 23675
Writer #0062: 23675
Writer #0063: 23675
Writer #0064: 23675
Writer #0065: 23675
Writer #0066: 23675
Writer #0067: 23675
Writer #0068: 23675
Writer #0069: 23675
Writer #0070: 23675
Writer #0071: 23675
Writer #0072: 23675
Writer #0073: 23675
Writer #0074: 23675
Writer #0075: 23675
Writer #0076: 23675
Writer #0077: 23675
Writer #0078: 23675
Writer #0079: 23675
Writer #0080: 23675
Writer #0081: 23675
Writer #0082: 23675
Writer #0083: 23675
Writer #0084: 23675
Writer #0085: 23675
Writer #0086: 23675
Writer #0087: 23675
Writer #0088: 23675
Writer #0089: 23675
Writer #0090: 23675
Writer #0091: 23675
Writer #0092: 23675
Writer #0093: 23675
Writer #0094: 23675
Writer #0095: 23675
Writer #0096: 23675
Writer #0097: 23675
Writer #0098: 23675
Writer #0099: 23675

Reader Total: 23675
Writer Total: 2367498
Wait 10 seconds...
1 Reader Thread(s)
Reader #0000: 22110

100 Writer Thread(s)
Writer #0000: 22110
Writer #0001: 22109
Writer #0002: 22109
Writer #0003: 22109
Writer #0004: 22109
Writer #0005: 22110
Writer #0006: 22109
Writer #0007: 22110
Writer #0008: 22110
Writer #0009: 22110
Writer #0010: 22109
Writer #0011: 22109
Writer #0012: 22110
Writer #0013: 22110
Writer #0014: 22109
Writer #0015: 22110
Writer #0016: 22111
Writer #0017: 22110
Writer #0018: 22110
Writer #0019: 22110
Writer #0020: 22110
Writer #0021: 22110
Writer #0022: 22109
Writer #0023: 22110
Writer #0024: 22110
Writer #0025: 22109
Writer #0026: 22110
Writer #0027: 22110
Writer #0028: 22109
Writer #0029: 22110
Writer #0030: 22110
Writer #0031: 22110
Writer #0032: 22110
Writer #0033: 22109
Writer #0034: 22110
Writer #0035: 22109
Writer #0036: 22110
Writer #0037: 22110
Writer #0038: 22110
Writer #0039: 22110
Writer #0040: 22110
Writer #0041: 22110
Writer #0042: 22110
Writer #0043: 22109
Writer #0044: 22109
Writer #0045: 22110
Writer #0046: 22110
Writer #0047: 22109
Writer #0048: 22110
Writer #0049: 22109
Writer #0050: 22110
Writer #0051: 22110
Writer #0052: 22110
Writer #0053: 22110
Writer #0054: 22110
Writer #0055: 22110
Writer #0056: 22109
Writer #0057: 22110
Writer #0058: 22109
Writer #0059: 22110
Writer #0060: 22110
Writer #0061: 22110
Writer #0062: 22110
Writer #0063: 22110
Writer #0064: 22110
Writer #0065: 22110
Writer #0066: 22110
Writer #0067: 22109
Writer #0068: 22110
Writer #0069: 22110
Writer #0070: 22110
Writer #0071: 22109
Writer #0072: 22110
Writer #0073: 22109
Writer #0074: 22110
Writer #0075: 22109
Writer #0076: 22109
Writer #0077: 22110
Writer #0078: 22109
Writer #0079: 22110
Writer #0080: 22111
Writer #0081: 22110
Writer #0082: 22110
Writer #0083: 22110
Writer #0084: 22109
Writer #0085: 22110
Writer #0086: 22111
Writer #0087: 22109
Writer #0088: 22109
Writer #0089: 22110
Writer #0090: 22110
Writer #0091: 22110
Writer #0092: 22110
Writer #0093: 22110
Writer #0094: 22110
Writer #0095: 22110
Writer #0096: 22110
Writer #0097: 22110
Writer #0098: 22110
Writer #0099: 22109

Reader Total: 22110
Writer Total: 2210974
Wait 10 seconds...
1 Reader Thread(s)
Reader #0000: 21485

100 Writer Thread(s)
Writer #0000: 21485
Writer #0001: 21485
Writer #0002: 21485
Writer #0003: 21486
Writer #0004: 21485
Writer #0005: 21485
Writer #0006: 21485
Writer #0007: 21486
Writer #0008: 21485
Writer #0009: 21486
Writer #0010: 21485
Writer #0011: 21485
Writer #0012: 21485
Writer #0013: 21485
Writer #0014: 21486
Writer #0015: 21486
Writer #0016: 21486
Writer #0017: 21485
Writer #0018: 21485
Writer #0019: 21485
Writer #0020: 21485
Writer #0021: 21485
Writer #0022: 21486
Writer #0023: 21485
Writer #0024: 21485
Writer #0025: 21485
Writer #0026: 21485
Writer #0027: 21485
Writer #0028: 21486
Writer #0029: 21485
Writer #0030: 21486
Writer #0031: 21485
Writer #0032: 21485
Writer #0033: 21485
Writer #0034: 21485
Writer #0035: 21485
Writer #0036: 21485
Writer #0037: 21485
Writer #0038: 21485
Writer #0039: 21485
Writer #0040: 21486
Writer #0041: 21485
Writer #0042: 21486
Writer #0043: 21485
Writer #0044: 21485
Writer #0045: 21486
Writer #0046: 21485
Writer #0047: 21485
Writer #0048: 21485
Writer #0049: 21485
Writer #0050: 21485
Writer #0051: 21485
Writer #0052: 21485
Writer #0053: 21485
Writer #0054: 21485
Writer #0055: 21485
Writer #0056: 21485
Writer #0057: 21485
Writer #0058: 21485
Writer #0059: 21485
Writer #0060: 21485
Writer #0061: 21485
Writer #0062: 21485
Writer #0063: 21485
Writer #0064: 21485
Writer #0065: 21485
Writer #0066: 21485
Writer #0067: 21485
Writer #0068: 21485
Writer #0069: 21485
Writer #0070: 21485
Writer #0071: 21486
Writer #0072: 21485
Writer #0073: 21485
Writer #0074: 21485
Writer #0075: 21486
Writer #0076: 21486
Writer #0077: 21486
Writer #0078: 21485
Writer #0079: 21485
Writer #0080: 21485
Writer #0081: 21485
Writer #0082: 21485
Writer #0083: 21485
Writer #0084: 21485
Writer #0085: 21486
Writer #0086: 21485
Writer #0087: 21485
Writer #0088: 21485
Writer #0089: 21485
Writer #0090: 21485
Writer #0091: 21485
Writer #0092: 21485
Writer #0093: 21486
Writer #0094: 21485
Writer #0095: 21485
Writer #0096: 21485
Writer #0097: 21485
Writer #0098: 21485
Writer #0099: 21486

Reader Total: 21485
Writer Total: 2148519
Wait 10 seconds...
1 Reader Thread(s)
Reader #0000: 23177

100 Writer Thread(s)
Writer #0000: 23176
Writer #0001: 23177
Writer #0002: 23176
Writer #0003: 23176
Writer #0004: 23177
Writer #0005: 23176
Writer #0006: 23178
Writer #0007: 23176
Writer #0008: 23177
Writer #0009: 23176
Writer #0010: 23176
Writer #0011: 23176
Writer #0012: 23176
Writer #0013: 23176
Writer #0014: 23176
Writer #0015: 23176
Writer #0016: 23176
Writer #0017: 23177
Writer #0018: 23176
Writer #0019: 23176
Writer #0020: 23176
Writer #0021: 23177
Writer #0022: 23176
Writer #0023: 23177
Writer #0024: 23176
Writer #0025: 23176
Writer #0026: 23176
Writer #0027: 23177
Writer #0028: 23177
Writer #0029: 23176
Writer #0030: 23176
Writer #0031: 23177
Writer #0032: 23176
Writer #0033: 23177
Writer #0034: 23177
Writer #0035: 23176
Writer #0036: 23176
Writer #0037: 23176
Writer #0038: 23176
Writer #0039: 23176
Writer #0040: 23176
Writer #0041: 23176
Writer #0042: 23176
Writer #0043: 23176
Writer #0044: 23176
Writer #0045: 23176
Writer #0046: 23177
Writer #0047: 23176
Writer #0048: 23177
Writer #0049: 23176
Writer #0050: 23176
Writer #0051: 23177
Writer #0052: 23176
Writer #0053: 23176
Writer #0054: 23177
Writer #0055: 23176
Writer #0056: 23177
Writer #0057: 23177
Writer #0058: 23176
Writer #0059: 23177
Writer #0060: 23176
Writer #0061: 23176
Writer #0062: 23176
Writer #0063: 23177
Writer #0064: 23176
Writer #0065: 23177
Writer #0066: 23177
Writer #0067: 23177
Writer #0068: 23176
Writer #0069: 23176
Writer #0070: 23177
Writer #0071: 23177
Writer #0072: 23177
Writer #0073: 23177
Writer #0074: 23177
Writer #0075: 23176
Writer #0076: 23176
Writer #0077: 23176
Writer #0078: 23177
Writer #0079: 23176
Writer #0080: 23176
Writer #0081: 23177
Writer #0082: 23176
Writer #0083: 23176
Writer #0084: 23176
Writer #0085: 23176
Writer #0086: 23177
Writer #0087: 23176
Writer #0088: 23176
Writer #0089: 23176
Writer #0090: 23176
Writer #0091: 23177
Writer #0092: 23177
Writer #0093: 23176
Writer #0094: 23177
Writer #0095: 23176
Writer #0096: 23176
Writer #0097: 23176
Writer #0098: 23176
Writer #0099: 23176

Reader Total: 23177
Writer Total: 2317635
Wait 10 seconds...
1 Reader Thread(s)
Reader #0000: 21103

100 Writer Thread(s)
Writer #0000: 21103
Writer #0001: 21103
Writer #0002: 21103
Writer #0003: 21104
Writer #0004: 21103
Writer #0005: 21103
Writer #0006: 21103
Writer #0007: 21103
Writer #0008: 21103
Writer #0009: 21103
Writer #0010: 21103
Writer #0011: 21103
Writer #0012: 21103
Writer #0013: 21103
Writer #0014: 21103
Writer #0015: 21104
Writer #0016: 21103
Writer #0017: 21103
Writer #0018: 21103
Writer #0019: 21103
Writer #0020: 21103
Writer #0021: 21103
Writer #0022: 21103
Writer #0023: 21103
Writer #0024: 21103
Writer #0025: 21103
Writer #0026: 21103
Writer #0027: 21103
Writer #0028: 21103
Writer #0029: 21103
Writer #0030: 21104
Writer #0031: 21104
Writer #0032: 21103
Writer #0033: 21103
Writer #0034: 21104
Writer #0035: 21103
Writer #0036: 21103
Writer #0037: 21103
Writer #0038: 21104
Writer #0039: 21103
Writer #0040: 21104
Writer #0041: 21103
Writer #0042: 21104
Writer #0043: 21103
Writer #0044: 21103
Writer #0045: 21103
Writer #0046: 21103
Writer #0047: 21104
Writer #0048: 21103
Writer #0049: 21103
Writer #0050: 21103
Writer #0051: 21103
Writer #0052: 21103
Writer #0053: 21103
Writer #0054: 21104
Writer #0055: 21103
Writer #0056: 21103
Writer #0057: 21104
Writer #0058: 21103
Writer #0059: 21103
Writer #0060: 21103
Writer #0061: 21103
Writer #0062: 21103
Writer #0063: 21103
Writer #0064: 21103
Writer #0065: 21103
Writer #0066: 21103
Writer #0067: 21103
Writer #0068: 21103
Writer #0069: 21103
Writer #0070: 21104
Writer #0071: 21103
Writer #0072: 21103
Writer #0073: 21103
Writer #0074: 21104
Writer #0075: 21104
Writer #0076: 21103
Writer #0077: 21103
Writer #0078: 21103
Writer #0079: 21104
Writer #0080: 21103
Writer #0081: 21103
Writer #0082: 21103
Writer #0083: 21103
Writer #0084: 21103
Writer #0085: 21103
Writer #0086: 21104
Writer #0087: 21103
Writer #0088: 21103
Writer #0089: 21103
Writer #0090: 21104
Writer #0091: 21103
Writer #0092: 21103
Writer #0093: 21103
Writer #0094: 21103
Writer #0095: 21104
Writer #0096: 21103
Writer #0097: 21104
Writer #0098: 21103
Writer #0099: 21103

Reader Total: 21103
Writer Total: 2110319
Wait 10 seconds...
1 Reader Thread(s)
Reader #0000: 23032

100 Writer Thread(s)
Writer #0000: 23032
Writer #0001: 23031
Writer #0002: 23031
Writer #0003: 23032
Writer #0004: 23031
Writer #0005: 23032
Writer #0006: 23032
Writer #0007: 23032
Writer #0008: 23031
Writer #0009: 23031
Writer #0010: 23031
Writer #0011: 23031
Writer #0012: 23032
Writer #0013: 23031
Writer #0014: 23031
Writer #0015: 23031
Writer #0016: 23031
Writer #0017: 23032
Writer #0018: 23031
Writer #0019: 23032
Writer #0020: 23033
Writer #0021: 23031
Writer #0022: 23032
Writer #0023: 23032
Writer #0024: 23031
Writer #0025: 23032
Writer #0026: 23033
Writer #0027: 23031
Writer #0028: 23032
Writer #0029: 23032
Writer #0030: 23032
Writer #0031: 23032
Writer #0032: 23031
Writer #0033: 23032
Writer #0034: 23032
Writer #0035: 23031
Writer #0036: 23032
Writer #0037: 23031
Writer #0038: 23031
Writer #0039: 23032
Writer #0040: 23032
Writer #0041: 23031
Writer #0042: 23031
Writer #0043: 23032
Writer #0044: 23032
Writer #0045: 23031
Writer #0046: 23032
Writer #0047: 23032
Writer #0048: 23032
Writer #0049: 23031
Writer #0050: 23031
Writer #0051: 23031
Writer #0052: 23032
Writer #0053: 23031
Writer #0054: 23031
Writer #0055: 23032
Writer #0056: 23032
Writer #0057: 23031
Writer #0058: 23031
Writer #0059: 23031
Writer #0060: 23032
Writer #0061: 23032
Writer #0062: 23031
Writer #0063: 23031
Writer #0064: 23032
Writer #0065: 23031
Writer #0066: 23032
Writer #0067: 23031
Writer #0068: 23032
Writer #0069: 23032
Writer #0070: 23032
Writer #0071: 23031
Writer #0072: 23032
Writer #0073: 23031
Writer #0074: 23032
Writer #0075: 23031
Writer #0076: 23031
Writer #0077: 23032
Writer #0078: 23032
Writer #0079: 23031
Writer #0080: 23031
Writer #0081: 23031
Writer #0082: 23032
Writer #0083: 23031
Writer #0084: 23031
Writer #0085: 23032
Writer #0086: 23031
Writer #0087: 23031
Writer #0088: 23031
Writer #0089: 23031
Writer #0090: 23032
Writer #0091: 23031
Writer #0092: 23032
Writer #0093: 23032
Writer #0094: 23031
Writer #0095: 23032
Writer #0096: 23031
Writer #0097: 23032
Writer #0098: 23032
Writer #0099: 23032

Reader Total: 23032
Writer Total: 2303152
Wait 10 seconds...
1 Reader Thread(s)
Reader #0000: 23161

100 Writer Thread(s)
Writer #0000: 23161
Writer #0001: 23161
Writer #0002: 23162
Writer #0003: 23161
Writer #0004: 23162
Writer #0005: 23162
Writer #0006: 23162
Writer #0007: 23161
Writer #0008: 23161
Writer #0009: 23161
Writer #0010: 23161
Writer #0011: 23162
Writer #0012: 23162
Writer #0013: 23161
Writer #0014: 23161
Writer #0015: 23162
Writer #0016: 23162
Writer #0017: 23162
Writer #0018: 23162
Writer #0019: 23161
Writer #0020: 23163
Writer #0021: 23161
Writer #0022: 23162
Writer #0023: 23161
Writer #0024: 23162
Writer #0025: 23162
Writer #0026: 23162
Writer #0027: 23161
Writer #0028: 23161
Writer #0029: 23161
Writer #0030: 23161
Writer #0031: 23161
Writer #0032: 23161
Writer #0033: 23162
Writer #0034: 23161
Writer #0035: 23162
Writer #0036: 23161
Writer #0037: 23161
Writer #0038: 23161
Writer #0039: 23161
Writer #0040: 23161
Writer #0041: 23161
Writer #0042: 23162
Writer #0043: 23161
Writer #0044: 23162
Writer #0045: 23161
Writer #0046: 23161
Writer #0047: 23161
Writer #0048: 23162
Writer #0049: 23162
Writer #0050: 23162
Writer #0051: 23161
Writer #0052: 23162
Writer #0053: 23162
Writer #0054: 23162
Writer #0055: 23162
Writer #0056: 23161
Writer #0057: 23162
Writer #0058: 23162
Writer #0059: 23162
Writer #0060: 23161
Writer #0061: 23162
Writer #0062: 23162
Writer #0063: 23162
Writer #0064: 23161
Writer #0065: 23162
Writer #0066: 23162
Writer #0067: 23162
Writer #0068: 23161
Writer #0069: 23163
Writer #0070: 23162
Writer #0071: 23162
Writer #0072: 23161
Writer #0073: 23162
Writer #0074: 23161
Writer #0075: 23162
Writer #0076: 23161
Writer #0077: 23161
Writer #0078: 23162
Writer #0079: 23162
Writer #0080: 23162
Writer #0081: 23161
Writer #0082: 23162
Writer #0083: 23161
Writer #0084: 23161
Writer #0085: 23161
Writer #0086: 23161
Writer #0087: 23162
Writer #0088: 23162
Writer #0089: 23161
Writer #0090: 23162
Writer #0091: 23162
Writer #0092: 23161
Writer #0093: 23161
Writer #0094: 23162
Writer #0095: 23161
Writer #0096: 23162
Writer #0097: 23162
Writer #0098: 23161
Writer #0099: 23162

Reader Total: 23161
Writer Total: 2316154
Wait 10 seconds...
1 Reader Thread(s)
Reader #0000: 21270

100 Writer Thread(s)
Writer #0000: 21270
Writer #0001: 21270
Writer #0002: 21270
Writer #0003: 21270
Writer #0004: 21270
Writer #0005: 21271
Writer #0006: 21270
Writer #0007: 21270
Writer #0008: 21270
Writer #0009: 21270
Writer #0010: 21270
Writer #0011: 21270
Writer #0012: 21270
Writer #0013: 21270
Writer #0014: 21271
Writer #0015: 21270
Writer #0016: 21270
Writer #0017: 21270
Writer #0018: 21270
Writer #0019: 21270
Writer #0020: 21270
Writer #0021: 21270
Writer #0022: 21270
Writer #0023: 21271
Writer #0024: 21270
Writer #0025: 21270
Writer #0026: 21270
Writer #0027: 21270
Writer #0028: 21270
Writer #0029: 21270
Writer #0030: 21270
Writer #0031: 21270
Writer #0032: 21271
Writer #0033: 21270
Writer #0034: 21271
Writer #0035: 21270
Writer #0036: 21270
Writer #0037: 21270
Writer #0038: 21270
Writer #0039: 21270
Writer #0040: 21270
Writer #0041: 21270
Writer #0042: 21270
Writer #0043: 21270
Writer #0044: 21270
Writer #0045: 21270
Writer #0046: 21270
Writer #0047: 21270
Writer #0048: 21270
Writer #0049: 21270
Writer #0050: 21270
Writer #0051: 21270
Writer #0052: 21270
Writer #0053: 21270
Writer #0054: 21270
Writer #0055: 21270
Writer #0056: 21270
Writer #0057: 21270
Writer #0058: 21270
Writer #0059: 21270
Writer #0060: 21270
Writer #0061: 21270
Writer #0062: 21270
Writer #0063: 21270
Writer #0064: 21270
Writer #0065: 21270
Writer #0066: 21270
Writer #0067: 21270
Writer #0068: 21270
Writer #0069: 21270
Writer #0070: 21270
Writer #0071: 21271
Writer #0072: 21270
Writer #0073: 21270
Writer #0074: 21270
Writer #0075: 21270
Writer #0076: 21270
Writer #0077: 21270
Writer #0078: 21270
Writer #0079: 21270
Writer #0080: 21270
Writer #0081: 21270
Writer #0082: 21270
Writer #0083: 21270
Writer #0084: 21270
Writer #0085: 21270
Writer #0086: 21270
Writer #0087: 21270
Writer #0088: 21270
Writer #0089: 21270
Writer #0090: 21270
Writer #0091: 21270
Writer #0092: 21270
Writer #0093: 21270
Writer #0094: 21270
Writer #0095: 21270
Writer #0096: 21270
Writer #0097: 21270
Writer #0098: 21270
Writer #0099: 21270

Reader Total: 21270
Writer Total: 2127006
Wait 10 seconds...
1 Reader Thread(s)
Reader #0000: 23254

100 Writer Thread(s)
Writer #0000: 23254
Writer #0001: 23254
Writer #0002: 23253
Writer #0003: 23254
Writer #0004: 23254
Writer #0005: 23254
Writer #0006: 23254
Writer #0007: 23254
Writer #0008: 23253
Writer #0009: 23254
Writer #0010: 23254
Writer #0011: 23254
Writer #0012: 23254
Writer #0013: 23254
Writer #0014: 23253
Writer #0015: 23254
Writer #0016: 23254
Writer #0017: 23254
Writer #0018: 23254
Writer #0019: 23254
Writer #0020: 23254
Writer #0021: 23254
Writer #0022: 23254
Writer #0023: 23253
Writer #0024: 23253
Writer #0025: 23254
Writer #0026: 23254
Writer #0027: 23254
Writer #0028: 23255
Writer #0029: 23254
Writer #0030: 23254
Writer #0031: 23254
Writer #0032: 23254
Writer #0033: 23254
Writer #0034: 23254
Writer #0035: 23254
Writer #0036: 23254
Writer #0037: 23254
Writer #0038: 23254
Writer #0039: 23255
Writer #0040: 23253
Writer #0041: 23255
Writer #0042: 23254
Writer #0043: 23254
Writer #0044: 23254
Writer #0045: 23254
Writer #0046: 23255
Writer #0047: 23253
Writer #0048: 23254
Writer #0049: 23254
Writer #0050: 23254
Writer #0051: 23254
Writer #0052: 23254
Writer #0053: 23254
Writer #0054: 23254
Writer #0055: 23253
Writer #0056: 23254
Writer #0057: 23254
Writer #0058: 23254
Writer #0059: 23254
Writer #0060: 23254
Writer #0061: 23254
Writer #0062: 23254
Writer #0063: 23253
Writer #0064: 23254
Writer #0065: 23254
Writer #0066: 23254
Writer #0067: 23254
Writer #0068: 23254
Writer #0069: 23254
Writer #0070: 23254
Writer #0071: 23254
Writer #0072: 23254
Writer #0073: 23254
Writer #0074: 23254
Writer #0075: 23254
Writer #0076: 23254
Writer #0077: 23254
Writer #0078: 23254
Writer #0079: 23253
Writer #0080: 23253
Writer #0081: 23254
Writer #0082: 23254
Writer #0083: 23254
Writer #0084: 23254
Writer #0085: 23254
Writer #0086: 23254
Writer #0087: 23254
Writer #0088: 23254
Writer #0089: 23254
Writer #0090: 23254
Writer #0091: 23254
Writer #0092: 23254
Writer #0093: 23254
Writer #0094: 23254
Writer #0095: 23253
Writer #0096: 23253
Writer #0097: 23254
Writer #0098: 23254
Writer #0099: 23254

Reader Total: 23254
Writer Total: 2325391
Wait 10 seconds...
1 Reader Thread(s)
Reader #0000: 22935

100 Writer Thread(s)
Writer #0000: 22935
Writer #0001: 22935
Writer #0002: 22936
Writer #0003: 22935
Writer #0004: 22935
Writer #0005: 22935
Writer #0006: 22936
Writer #0007: 22935
Writer #0008: 22935
Writer #0009: 22936
Writer #0010: 22936
Writer #0011: 22935
Writer #0012: 22936
Writer #0013: 22936
Writer #0014: 22937
Writer #0015: 22935
Writer #0016: 22935
Writer #0017: 22935
Writer #0018: 22935
Writer #0019: 22936
Writer #0020: 22935
Writer #0021: 22936
Writer #0022: 22936
Writer #0023: 22936
Writer #0024: 22936
Writer #0025: 22936
Writer #0026: 22935
Writer #0027: 22935
Writer #0028: 22935
Writer #0029: 22936
Writer #0030: 22936
Writer #0031: 22936
Writer #0032: 22936
Writer #0033: 22936
Writer #0034: 22936
Writer #0035: 22935
Writer #0036: 22935
Writer #0037: 22936
Writer #0038: 22936
Writer #0039: 22936
Writer #0040: 22935
Writer #0041: 22936
Writer #0042: 22936
Writer #0043: 22936
Writer #0044: 22936
Writer #0045: 22935
Writer #0046: 22935
Writer #0047: 22936
Writer #0048: 22936
Writer #0049: 22936
Writer #0050: 22936
Writer #0051: 22935
Writer #0052: 22935
Writer #0053: 22936
Writer #0054: 22935
Writer #0055: 22935
Writer #0056: 22935
Writer #0057: 22936
Writer #0058: 22936
Writer #0059: 22936
Writer #0060: 22936
Writer #0061: 22936
Writer #0062: 22936
Writer #0063: 22936
Writer #0064: 22936
Writer #0065: 22936
Writer #0066: 22935
Writer #0067: 22935
Writer #0068: 22935
Writer #0069: 22935
Writer #0070: 22935
Writer #0071: 22935
Writer #0072: 22935
Writer #0073: 22936
Writer #0074: 22935
Writer #0075: 22936
Writer #0076: 22935
Writer #0077: 22936
Writer #0078: 22936
Writer #0079: 22936
Writer #0080: 22936
Writer #0081: 22936
Writer #0082: 22935
Writer #0083: 22936
Writer #0084: 22935
Writer #0085: 22936
Writer #0086: 22936
Writer #0087: 22936
Writer #0088: 22935
Writer #0089: 22936
Writer #0090: 22935
Writer #0091: 22935
Writer #0092: 22936
Writer #0093: 22936
Writer #0094: 22935
Writer #0095: 22935
Writer #0096: 22935
Writer #0097: 22936
Writer #0098: 22936
Writer #0099: 22936

Reader Total: 22935
Writer Total: 2293558
Wait 10 seconds...
1 Reader Thread(s)
Reader #0000: 22783

100 Writer Thread(s)
Writer #0000: 22782
Writer #0001: 22782
Writer #0002: 22782
Writer #0003: 22782
Writer #0004: 22782
Writer #0005: 22782
Writer #0006: 22782
Writer #0007: 22783
Writer #0008: 22782
Writer #0009: 22782
Writer #0010: 22782
Writer #0011: 22783
Writer #0012: 22783
Writer #0013: 22783
Writer #0014: 22782
Writer #0015: 22782
Writer #0016: 22782
Writer #0017: 22783
Writer #0018: 22782
Writer #0019: 22782
Writer #0020: 22783
Writer #0021: 22782
Writer #0022: 22783
Writer #0023: 22782
Writer #0024: 22782
Writer #0025: 22782
Writer #0026: 22783
Writer #0027: 22782
Writer #0028: 22783
Writer #0029: 22783
Writer #0030: 22782
Writer #0031: 22782
Writer #0032: 22783
Writer #0033: 22783
Writer #0034: 22782
Writer #0035: 22782
Writer #0036: 22782
Writer #0037: 22782
Writer #0038: 22783
Writer #0039: 22783
Writer #0040: 22782
Writer #0041: 22782
Writer #0042: 22782
Writer #0043: 22782
Writer #0044: 22782
Writer #0045: 22782
Writer #0046: 22782
Writer #0047: 22782
Writer #0048: 22782
Writer #0049: 22783
Writer #0050: 22782
Writer #0051: 22782
Writer #0052: 22782
Writer #0053: 22783
Writer #0054: 22782
Writer #0055: 22783
Writer #0056: 22782
Writer #0057: 22782
Writer #0058: 22782
Writer #0059: 22782
Writer #0060: 22783
Writer #0061: 22782
Writer #0062: 22783
Writer #0063: 22782
Writer #0064: 22782
Writer #0065: 22783
Writer #0066: 22782
Writer #0067: 22782
Writer #0068: 22783
Writer #0069: 22782
Writer #0070: 22782
Writer #0071: 22782
Writer #0072: 22782
Writer #0073: 22782
Writer #0074: 22782
Writer #0075: 22783
Writer #0076: 22782
Writer #0077: 22782
Writer #0078: 22782
Writer #0079: 22782
Writer #0080: 22782
Writer #0081: 22782
Writer #0082: 22783
Writer #0083: 22783
Writer #0084: 22782
Writer #0085: 22782
Writer #0086: 22783
Writer #0087: 22782
Writer #0088: 22782
Writer #0089: 22782
Writer #0090: 22782
Writer #0091: 22782
Writer #0092: 22782
Writer #0093: 22782
Writer #0094: 22783
Writer #0095: 22782
Writer #0096: 22782
Writer #0097: 22782
Writer #0098: 22783
Writer #0099: 22783

Reader Total: 22783
Writer Total: 2278228
